…
from the table we can get top 10 most popular songs since 1958

partB

we first excludes the years 1958 and 2021 then we can counts the number
of times that a given song appears on the Top 100 in a given year

    number_of_times_that_a_given_song

    ## # A tibble: 34,467 x 3
    ## # Groups:   year [62]
    ##     year song                                       count
    ##    <int> <chr>                                      <int>
    ##  1  1959 "\"Yep!\""                                     9
    ##  2  1959 "('til) I Kissed You"                         16
    ##  3  1959 "(All of a Sudden) My Heart Sings"            15
    ##  4  1959 "(I'll Be With You In) Apple Blossom Time"    11
    ##  5  1959 "(I Don't Care) Only Love Me"                  4
    ##  6  1959 "(I Wanna) Dance With The Teacher"             3
    ##  7  1959 "(If You Cry) True Love, True Love"            9
    ##  8  1959 "(New In) The Ways Of Love"                    7
    ##  9  1959 "(Night Time Is) The Right Time"               1
    ## 10  1959 "(Now and Then There's) A Fool Such As I"     15
    ## # ... with 34,457 more rows
…
