…
from the table we can get top 10 most popular songs since 1958

partB Is the “musical diversity” of the Billboard Top 100 changing over
time?

we first excludes the years 1958 and 2021 then we can counts the number
of times that a given song appears on the Top 100 in a given year

    ## # A tibble: 34,467 x 3
    ## # Groups:   year [62]
    ##     year song                                       count
    ##    <int> <chr>                                      <int>
    ##  1  1959 "\"Yep!\""                                     9
    ##  2  1959 "('til) I Kissed You"                         16
    ##  3  1959 "(All of a Sudden) My Heart Sings"            15
    ##  4  1959 "(I'll Be With You In) Apple Blossom Time"    11
    ##  5  1959 "(I Don't Care) Only Love Me"                  4
    ##  6  1959 "(I Wanna) Dance With The Teacher"             3
    ##  7  1959 "(If You Cry) True Love, True Love"            9
    ##  8  1959 "(New In) The Ways Of Love"                    7
    ##  9  1959 "(Night Time Is) The Right Time"               1
    ## 10  1959 "(Now and Then There's) A Fool Such As I"     15
    ## # ... with 34,457 more rows
…
    ## # A tibble: 1 x 2
    ##   event                      height_var
    ##   <chr>                           <dbl>
    ## 1 Rowing Women's Coxed Fours       10.9

Rowing Women’s Coxed Fours had the greatest variability in competitor’s
heights across the entire history of the Olympics, as measured by the
standard deviation

partc average age of Olympic swimmers changed over time

according to data frame, we can also see this trend

    ## # A tibble: 46 x 3
    ## # Groups:   year [28]
    ##     year sex   age_avg
    ##    <int> <chr>   <dbl>
    ##  1  1900 M        18  
    ##  2  1904 M        20.1
    ##  3  1906 M        22  
    ##  4  1908 M        23.5
    ##  5  1912 M        27  
    ##  6  1920 M        26  
    ##  7  1924 F        18  
    ##  8  1924 M        32  
    ##  9  1928 M        23.5
    ## 10  1932 M        19  
    ## # ... with 36 more rows
…
