…
    ## 1 2018-09-01 06:00:00        0         1         Sat       74.82           6
    ## 2 2018-09-01 06:15:00        2         1         Sat       74.82           6
    ## 3 2018-09-01 06:30:00        3         4         Sat       74.82           6
    ## 4 2018-09-01 06:45:00        3         4         Sat       74.82           6
    ## 5 2018-09-01 07:00:00        2         4         Sat       74.39           7
    ## 6 2018-09-01 07:15:00        4         4         Sat       74.39           7
    ##   month weekend
    ## 1   Sep weekend
    ## 2   Sep weekend
    ## 3   Sep weekend
    ## 4   Sep weekend
    ## 5   Sep weekend
    ## 6   Sep weekend

    ## # A tibble: 1,443 × 4
    ## # Groups:   temperature, hour_of_day [1,433]
    ##    temperature hour_of_day weekend mean_boarding
    ##          <dbl>       <int> <chr>           <dbl>
    ##  1        29.2           6 weekday          5   
    ##  2        29.3           7 weekday         12.5 
    ##  3        30.8           6 weekday          3.75
    ##  4        31.6           7 weekday         16.8 
    ##  5        31.6           8 weekday         21.5 
    ##  6        33.4           7 weekday         13.5 
    ##  7        33.7           6 weekday          4.75
    ##  8        34.8           7 weekday         14.2 
    ##  9        35.2           6 weekday          4.25
    ## 10        35.2           8 weekday         21.2 
    ## # … with 1,433 more rows
…
